Text as data
…
#### Save data ####
write_csv(analysis_dataset, "simulated_dataset.csv")

Simulating data (cont.)

analysis_dataset

# A tibble: 181 × 2
   date       minutes                                                           
   <date>     <chr>                                                             
 1 2025-06-03 was around including demand inflation australia were per labour t…
 2 2025-05-06 tariffs noted they for this levels be rate had would basis was bu…
 3 2025-04-01 international for they over data australia growth household meeti…
 4 2025-03-04 growth meeting the response economy this to growth trade trade ex…
 5 2025-02-04 tariffs little international inflation developments for prices wa…
 6 2025-01-07 forecast not more data meeting expectations on labour expectation…
 7 2024-12-03 of this early members global might that were basis target economy…
 8 2024-11-05 risks activity inflation basis on members cash it but levels trad…
 9 2024-10-01 demand growth response household trade remained as us could consu…
10 2024-09-03 activity were had the been markets noted growth other their have …
# ℹ 171 more rows
…
